[gd_resource type="ShaderMaterial" load_steps=2 format=3 uid="uid://mcya2jpieh0v"]

[ext_resource type="Shader" path="res://highlight_shader.gdshader" id="1_fj0n8"]

[resource]
resource_local_to_scene = true
render_priority = 0
shader = ExtResource("1_fj0n8")
shader_parameter/outline_color = Color(1, 0.482353, 0, 1)
shader_parameter/luma_coef = 4.0
shader_parameter/color_coef = 4.0
shader_parameter/depth_coef = 4.0
shader_parameter/cutoff = 0.01
shader_parameter/highlighted = false
